ICCAT Bigeye Tuna assessment
…
# FLR data.frame trajectories
tibble::as_tibble(bet.full$flqs)

# A tibble: 276 × 8
   age    year unit   season area    iter     data qname  
   <chr> <dbl> <chr>  <chr>  <chr>  <dbl>    <dbl> <fct>  
 1 all    1950 unique all    unique     1 1178844. biomass
 2 all    1951 unique all    unique     1 1176728. biomass
 3 all    1952 unique all    unique     1 1173449. biomass
 4 all    1953 unique all    unique     1 1170452. biomass
 5 all    1954 unique all    unique     1 1171114. biomass
 6 all    1955 unique all    unique     1 1163555. biomass
 7 all    1956 unique all    unique     1 1150687. biomass
 8 all    1957 unique all    unique     1 1144055. biomass
 9 all    1958 unique all    unique     1 1126012. biomass
10 all    1959 unique all    unique     1 1112821. biomass
# … with 266 more rows

# fits
tibble::as_tibble(bet.full$diags)

# A tibble: 59 × 12
   factor  level name   year season   obs   hat hat.lci hat.uci residual retro…¹
   <chr>   <chr> <chr> <int>  <dbl> <dbl> <dbl>   <dbl>   <dbl>    <dbl>   <dbl>
 1 BETicc… Run2  JR2_…  1959      1 0.842 0.945   0.803    1.11 -0.115         0
 2 BETicc… Run2  JR2_…  1960      1 0.925 0.982   0.854    1.13 -0.0601        0
 3 BETicc… Run2  JR2_…  1961      1 1.17  1.06    0.922    1.21  0.103         0
 4 BETicc… Run2  JR2_…  1962      1 1.00  1.06    0.930    1.21 -0.0581        0
 5 BETicc… Run2  JR2_…  1963      1 1.15  1.10    0.964    1.26  0.0460        0
 6 BETicc… Run2  JR2_…  1964      1 1.17  1.12    0.983    1.28  0.0406        0
 7 BETicc… Run2  JR2_…  1965      1 1.23  1.13    0.991    1.29  0.0840        0
 8 BETicc… Run2  JR2_…  1966      1 1.08  1.09    0.951    1.24 -0.00852       0
 9 BETicc… Run2  JR2_…  1967      1 1.04  1.07    0.936    1.22 -0.0242        0
10 BETicc… Run2  JR2_…  1968      1 1.19  1.08    0.939    1.24  0.104         0
# … with 49 more rows, 1 more variable: hindcast <lgl>, and abbreviated
#   variable name ¹​retro.peels
…
